eds213_data_cleaning_assign_Flora
…
#all_fixed <- all_fixed %>% mutate(Land_cover = Total_cover - (Snow_cover + Water_cover)) 

all_fixed 

# A tibble: 42,830 × 12
   Site   Year Date      Plot  Location Snow_cover Water_cover Land_cover
   <chr> <dbl> <chr>     <chr> <chr>         <dbl>       <dbl>      <dbl>
 1 barr   2011 29-May-11 brw1  b10              90           0         10
 2 barr   2011 29-May-11 brw1  b12             100           0          0
 3 barr   2011 29-May-11 brw1  b2               90           0         10
 4 barr   2011 29-May-11 brw1  b4              100           0          0
 5 barr   2011 29-May-11 brw1  b6               95           0          5
 6 barr   2011 29-May-11 brw1  b8               95           0          5
 7 barr   2011 29-May-11 brw1  d10              95           0          5
 8 barr   2011 29-May-11 brw1  d12              90           0         10
 9 barr   2011 29-May-11 brw1  d2               95           0          5
10 barr   2011 29-May-11 brw1  d4               95           0          5
# ℹ 42,820 more rows
# ℹ 4 more variables: Total_cover <chr>, Observer <chr>, Notes <chr>,
#   `Snow_cover == as.numeric(Snow_cover)` <lgl>

Check that Total_cover is all = 100

all_fixed %>% filter(Total_cover != 100 ) #check where total_cover is not 100. there're 5000 something rows like this 

# A tibble: 5,300 × 12
   Site   Year Date      Plot  Location Snow_cover Water_cover Land_cover
   <chr> <dbl> <chr>     <chr> <chr>         <dbl>       <dbl>      <dbl>
 1 barr   2011 19-Jul-11 brw6  j2               NA          NA         NA
 2 barr   2011 19-Jul-11 brw6  l2               NA          NA         NA
 3 barr   2011 19-Jul-11 brw6  l4               NA          NA         NA
 4 barr   2011 19-Jul-11 brw6  l6               NA          NA         NA
 5 barr   2011 26-Jul-11 brw6  j2               NA          NA         NA
 6 barr   2011 26-Jul-11 brw6  l2               NA          NA         NA
 7 barr   2011 26-Jul-11 brw6  l4               NA          NA         NA
 8 barr   2011 26-Jul-11 brw6  l6               NA          NA         NA
 9 barr   2012 29-May-12 brw6  b2               NA          NA         NA
10 barr   2012 29-May-12 brw6  b4               NA          NA         NA
# ℹ 5,290 more rows
# ℹ 4 more variables: Total_cover <chr>, Observer <chr>, Notes <chr>,
#   `Snow_cover == as.numeric(Snow_cover)` <lgl>

all_fixed <- all_fixed %>% filter(Total_cover == 100) #keep rows where that is not the case. 

all_fixed

# A tibble: 37,449 × 12
   Site   Year Date      Plot  Location Snow_cover Water_cover Land_cover
   <chr> <dbl> <chr>     <chr> <chr>         <dbl>       <dbl>      <dbl>
 1 barr   2011 29-May-11 brw1  b10              90           0         10
 2 barr   2011 29-May-11 brw1  b12             100           0          0
 3 barr   2011 29-May-11 brw1  b2               90           0         10
 4 barr   2011 29-May-11 brw1  b4              100           0          0
 5 barr   2011 29-May-11 brw1  b6               95           0          5
 6 barr   2011 29-May-11 brw1  b8               95           0          5
 7 barr   2011 29-May-11 brw1  d10              95           0          5
 8 barr   2011 29-May-11 brw1  d12              90           0         10
 9 barr   2011 29-May-11 brw1  d2               95           0          5
10 barr   2011 29-May-11 brw1  d4               95           0          5
# ℹ 37,439 more rows
# ℹ 4 more variables: Total_cover <chr>, Observer <chr>, Notes <chr>,
#   `Snow_cover == as.numeric(Snow_cover)` <lgl>
…
